…
    ## Warning in eval(substitute(expr), envir, enclos): NAs introduced by
    ## coercion

``` r
data1<-data1[,c(3,1,2,4)]
data1
```

    ## # A tibble: 152 × 4
    ##                    Species `Light_ Intensity ` temperature growth
    ##                      <chr>               <dbl>       <dbl>  <dbl>
    ## 1       Caloneis_schroderi                2500           5  -0.50
    ## 2     Chaetoceros_gracilis                2500           5  -0.05
    ## 3      Chaetoceros_simplex                2500           5  -0.01
    ## 4    Chlorella_ellipsoidea                2500           5   0.02
    ## 5  Chlorella_stigmatophora                2500           5   0.24
    ## 6     Chlorella_vulgaris                  2500           5   0.00
    ## 7   Dunaniella_tertiolecta                2500           5   0.17
    ## 8     Cyclotella_sp NUFP-9                2500           5   0.08
    ## 9          Hanzchia_marina                2500           5  -0.07
    ## 10      Isochrysis_galbana                2500           5  -0.07
    ## # ... with 142 more rows
…
